{
    "expand": "renderedFields,names,schema,transitions,operations,editmeta,changelog",
    "id": "37300",
    "self": "https://support.ibpm.pro:8443/rest/api/latest/issue/37300",
    "key": "BLHSBC-46",
    "fields": {
        "issuetype": {
            "self": "https://support.ibpm.pro:8443/rest/api/2/issuetype/5",
            "id": "5",
            "description": "The sub-task of the issue",
            "iconUrl": "https://support.ibpm.pro:8443/images/icons/issuetypes/subtask_alternate.png",
            "name": "Sub-task",
            "subtask": true
        },
        "parent": {
            "id": "33587",
            "key": "BLHSBC-1",
            "self": "https://support.ibpm.pro:8443/rest/api/2/issue/33587",
            "fields": {
                "summary": "HSBC",
                "status": {
                    "self": "https://support.ibpm.pro:8443/rest/api/2/status/1",
                    "description": "The issue is open and ready for the assignee to start work on it.",
                    "iconUrl": "https://support.ibpm.pro:8443/images/icons/statuses/open.png",
                    "name": "Open",
                    "id": "1",
                    "statusCategory": {
                        "self": "https://support.ibpm.pro:8443/rest/api/2/statuscategory/2",
                        "id": 2,
                        "key": "new",
                        "colorName": "blue-gray",
                        "name": "To Do"
                    }
                },
                "priority": {
                    "self": "https://support.ibpm.pro:8443/rest/api/2/priority/3",
                    "iconUrl": "https://support.ibpm.pro:8443/images/icons/priorities/major.png",
                    "name": "Major",
                    "id": "3"
                },
                "issuetype": {
                    "self": "https://support.ibpm.pro:8443/rest/api/2/issuetype/3",
                    "id": "3",
                    "description": "A task that needs to be done.",
                    "iconUrl": "https://support.ibpm.pro:8443/images/icons/issuetypes/task.png",
                    "name": "Task",
                    "subtask": false
                }
            }
        },
        "timespent": 583200,
        "customfield_10030": null,
        "project": {
            "self": "https://support.ibpm.pro:8443/rest/api/2/project/12705",
            "id": "12705",
            "key": "BLHSBC",
            "name": "BL_HSBC",
            "avatarUrls": {
                "48x48": "https://support.ibpm.pro:8443/secure/projectavatar?avatarId=10011",
                "24x24": "https://support.ibpm.pro:8443/secure/projectavatar?size=small&avatarId=10011",
                "16x16": "https://support.ibpm.pro:8443/secure/projectavatar?size=xsmall&avatarId=10011",
                "32x32": "https://support.ibpm.pro:8443/secure/projectavatar?size=medium&avatarId=10011"
            },
            "projectCategory": {
                "self": "https://support.ibpm.pro:8443/rest/api/2/projectCategory/10501",
                "id": "10501",
                "description": "Projekty Komercyjne",
                "name": "CM"
            }
        },
        "fixVersions": [],
        "aggregatetimespent": 583200,
        "resolution": null,
        "customfield_10500": "2|zvidk3:",
        "customfield_12602": null,
        "customfield_12601": null,
        "resolutiondate": null,
        "workratio": -1,
        "lastViewed": "2018-06-03T13:16:10.547+0200",
        "watches": {
            "self": "https://support.ibpm.pro:8443/rest/api/2/issue/BLHSBC-46/watchers",
            "watchCount": 1,
            "isWatching": false
        },
        "created": "2018-05-08T10:48:10.000+0200",
        "priority": {
            "self": "https://support.ibpm.pro:8443/rest/api/2/priority/3",
            "iconUrl": "https://support.ibpm.pro:8443/images/icons/priorities/major.png",
            "name": "Major",
            "id": "3"
        },
        "customfield_12600": null,
        "labels": [],
        "customfield_10016": null,
        "customfield_10017": null,
        "customfield_10019": null,
        "timeestimate": 0,
        "aggregatetimeoriginalestimate": null,
        "versions": [],
        "issuelinks": [],
        "assignee": {
            "self": "https://support.ibpm.pro:8443/rest/api/2/user?username=jgierko",
            "name": "jgierko",
            "key": "jgierko",
            "emailAddress": "jakub.gierko@ibpm.pro",
            "avatarUrls": {
                "48x48": "https://support.ibpm.pro:8443/secure/useravatar?avatarId=10122",
                "24x24": "https://support.ibpm.pro:8443/secure/useravatar?size=small&avatarId=10122",
                "16x16": "https://support.ibpm.pro:8443/secure/useravatar?size=xsmall&avatarId=10122",
                "32x32": "https://support.ibpm.pro:8443/secure/useravatar?size=medium&avatarId=10122"
            },
            "displayName": "Gierko Jakub",
            "active": true,
            "timeZone": "Poland"
        },
        "updated": "2018-05-30T18:07:28.000+0200",
        "status": {
            "self": "https://support.ibpm.pro:8443/rest/api/2/status/1",
            "description": "The issue is open and ready for the assignee to start work on it.",
            "iconUrl": "https://support.ibpm.pro:8443/images/icons/statuses/open.png",
            "name": "Open",
            "id": "1",
            "statusCategory": {
                "self": "https://support.ibpm.pro:8443/rest/api/2/statuscategory/2",
                "id": 2,
                "key": "new",
                "colorName": "blue-gray",
                "name": "To Do"
            }
        },
        "components": [],
        "timeoriginalestimate": null,
        "description": null,
        "customfield_10010": null,
        "customfield_10011": null,
        "customfield_10012": null,
        "customfield_10013": null,
        "customfield_10014": null,
        "timetracking": {
            "remainingEstimate": "0m",
            "timeSpent": "4w 2h",
            "remainingEstimateSeconds": 0,
            "timeSpentSeconds": 583200
        },
        "customfield_10015": null,
        "customfield_11810": null,
        "customfield_12701": null,
        "customfield_10006": null,
        "customfield_12700": null,
        "customfield_10007": null,
        "customfield_10800": {
            "self": "https://support.ibpm.pro:8443/rest/api/2/customFieldOption/10800",
            "value": "wypoczynkowy",
            "id": "10800"
        },
        "customfield_11811": null,
        "attachment": [],
        "aggregatetimeestimate": 0,
        "customfield_10802": null,
        "customfield_10803": null,
        "customfield_10804": null,
        "customfield_10805": null,
        "customfield_10808": null,
        "summary": "[05/2018] Jakub Gierko",
        "creator": {
            "self": "https://support.ibpm.pro:8443/rest/api/2/user?username=mswierczewski",
            "name": "mswierczewski",
            "key": "mswierczewski",
            "emailAddress": "mswierczewski@ibpm.pro",
            "avatarUrls": {
                "48x48": "https://support.ibpm.pro:8443/secure/useravatar?avatarId=10108",
                "24x24": "https://support.ibpm.pro:8443/secure/useravatar?size=small&avatarId=10108",
                "16x16": "https://support.ibpm.pro:8443/secure/useravatar?size=xsmall&avatarId=10108",
                "32x32": "https://support.ibpm.pro:8443/secure/useravatar?size=medium&avatarId=10108"
            },
            "displayName": "Świerczewski Michał",
            "active": true,
            "timeZone": "Poland"
        },
        "subtasks": [],
        "reporter": {
            "self": "https://support.ibpm.pro:8443/rest/api/2/user?username=mswierczewski",
            "name": "mswierczewski",
            "key": "mswierczewski",
            "emailAddress": "mswierczewski@ibpm.pro",
            "avatarUrls": {
                "48x48": "https://support.ibpm.pro:8443/secure/useravatar?avatarId=10108",
                "24x24": "https://support.ibpm.pro:8443/secure/useravatar?size=small&avatarId=10108",
                "16x16": "https://support.ibpm.pro:8443/secure/useravatar?size=xsmall&avatarId=10108",
                "32x32": "https://support.ibpm.pro:8443/secure/useravatar?size=medium&avatarId=10108"
            },
            "displayName": "Świerczewski Michał",
            "active": true,
            "timeZone": "Poland"
        },
        "customfield_10000": null,
        "aggregateprogress": {
            "progress": 583200,
            "total": 583200,
            "percent": 100
        },
        "customfield_10001": null,
        "customfield_12103": null,
        "customfield_10002": "9223372036854775807",
        "customfield_10200": {
            "self": "https://support.ibpm.pro:8443/rest/api/2/customFieldOption/10303",
            "value": "Low",
            "id": "10303"
        },
        "customfield_12102": null,
        "customfield_10201": null,
        "customfield_11204": null,
        "customfield_11205": null,
        "environment": null,
        "customfield_11206": null,
        "customfield_11803": null,
        "customfield_11802": null,
        "duedate": null,
        "customfield_11805": null,
        "customfield_11804": null,
        "customfield_11807": null,
        "customfield_11806": null,
        "progress": {
            "progress": 583200,
            "total": 583200,
            "percent": 100
        },
        "comment": {
            "startAt": 0,
            "maxResults": 0,
            "total": 0,
            "comments": []
        },
        "customfield_11809": null,
        "votes": {
            "self": "https://support.ibpm.pro:8443/rest/api/2/issue/BLHSBC-46/votes",
            "votes": 0,
            "hasVoted": false
        },
        "worklog": {
            "startAt": 0,
            "maxResults": 20,
            "total": 21,
            "worklogs": [
                {
                    "self": "https://support.ibpm.pro:8443/rest/api/2/issue/37300/worklog/93775",
                    "author": {
                        "self": "https://support.ibpm.pro:8443/rest/api/2/user?username=jgierko",
                        "name": "jgierko",
                        "key": "jgierko",
                        "emailAddress": "jakub.gierko@ibpm.pro",
                        "avatarUrls": {
                            "48x48": "https://support.ibpm.pro:8443/secure/useravatar?avatarId=10122",
                            "24x24": "https://support.ibpm.pro:8443/secure/useravatar?size=small&avatarId=10122",
                            "16x16": "https://support.ibpm.pro:8443/secure/useravatar?size=xsmall&avatarId=10122",
                            "32x32": "https://support.ibpm.pro:8443/secure/useravatar?size=medium&avatarId=10122"
                        },
                        "displayName": "Gierko Jakub",
                        "active": true,
                        "timeZone": "Poland"
                    },
                    "updateAuthor": {
                        "self": "https://support.ibpm.pro:8443/rest/api/2/user?username=jgierko",
                        "name": "jgierko",
                        "key": "jgierko",
                        "emailAddress": "jakub.gierko@ibpm.pro",
                        "avatarUrls": {
                            "48x48": "https://support.ibpm.pro:8443/secure/useravatar?avatarId=10122",
                            "24x24": "https://support.ibpm.pro:8443/secure/useravatar?size=small&avatarId=10122",
                            "16x16": "https://support.ibpm.pro:8443/secure/useravatar?size=xsmall&avatarId=10122",
                            "32x32": "https://support.ibpm.pro:8443/secure/useravatar?size=medium&avatarId=10122"
                        },
                        "displayName": "Gierko Jakub",
                        "active": true,
                        "timeZone": "Poland"
                    },
                    "comment": "Development",
                    "created": "2018-05-30T17:51:45.000+0200",
                    "updated": "2018-05-30T17:51:45.000+0200",
                    "started": "2018-05-02T00:00:00.000+0200",
                    "timeSpent": "1d",
                    "timeSpentSeconds": 28800,
                    "id": "93775"
                },
                {
                    "self": "https://support.ibpm.pro:8443/rest/api/2/issue/37300/worklog/93777",
                    "author": {
                        "self": "https://support.ibpm.pro:8443/rest/api/2/user?username=jgierko",
                        "name": "jgierko",
                        "key": "jgierko",
                        "emailAddress": "jakub.gierko@ibpm.pro",
                        "avatarUrls": {
                            "48x48": "https://support.ibpm.pro:8443/secure/useravatar?avatarId=10122",
                            "24x24": "https://support.ibpm.pro:8443/secure/useravatar?size=small&avatarId=10122",
                            "16x16": "https://support.ibpm.pro:8443/secure/useravatar?size=xsmall&avatarId=10122",
                            "32x32": "https://support.ibpm.pro:8443/secure/useravatar?size=medium&avatarId=10122"
                        },
                        "displayName": "Gierko Jakub",
                        "active": true,
                        "timeZone": "Poland"
                    },
                    "updateAuthor": {
                        "self": "https://support.ibpm.pro:8443/rest/api/2/user?username=jgierko",
                        "name": "jgierko",
                        "key": "jgierko",
                        "emailAddress": "jakub.gierko@ibpm.pro",
                        "avatarUrls": {
                            "48x48": "https://support.ibpm.pro:8443/secure/useravatar?avatarId=10122",
                            "24x24": "https://support.ibpm.pro:8443/secure/useravatar?size=small&avatarId=10122",
                            "16x16": "https://support.ibpm.pro:8443/secure/useravatar?size=xsmall&avatarId=10122",
                            "32x32": "https://support.ibpm.pro:8443/secure/useravatar?size=medium&avatarId=10122"
                        },
                        "displayName": "Gierko Jakub",
                        "active": true,
                        "timeZone": "Poland"
                    },
                    "comment": "Development",
                    "created": "2018-05-30T17:52:09.000+0200",
                    "updated": "2018-05-30T17:52:09.000+0200",
                    "started": "2018-05-04T00:00:00.000+0200",
                    "timeSpent": "1d",
                    "timeSpentSeconds": 28800,
                    "id": "93777"
                },
                {
                    "self": "https://support.ibpm.pro:8443/rest/api/2/issue/37300/worklog/93778",
                    "author": {
                        "self": "https://support.ibpm.pro:8443/rest/api/2/user?username=jgierko",
                        "name": "jgierko",
                        "key": "jgierko",
                        "emailAddress": "jakub.gierko@ibpm.pro",
                        "avatarUrls": {
                            "48x48": "https://support.ibpm.pro:8443/secure/useravatar?avatarId=10122",
                            "24x24": "https://support.ibpm.pro:8443/secure/useravatar?size=small&avatarId=10122",
                            "16x16": "https://support.ibpm.pro:8443/secure/useravatar?size=xsmall&avatarId=10122",
                            "32x32": "https://support.ibpm.pro:8443/secure/useravatar?size=medium&avatarId=10122"
                        },
                        "displayName": "Gierko Jakub",
                        "active": true,
                        "timeZone": "Poland"
                    },
                    "updateAuthor": {
                        "self": "https://support.ibpm.pro:8443/rest/api/2/user?username=jgierko",
                        "name": "jgierko",
                        "key": "jgierko",
                        "emailAddress": "jakub.gierko@ibpm.pro",
                        "avatarUrls": {
                            "48x48": "https://support.ibpm.pro:8443/secure/useravatar?avatarId=10122",
                            "24x24": "https://support.ibpm.pro:8443/secure/useravatar?size=small&avatarId=10122",
                            "16x16": "https://support.ibpm.pro:8443/secure/useravatar?size=xsmall&avatarId=10122",
                            "32x32": "https://support.ibpm.pro:8443/secure/useravatar?size=medium&avatarId=10122"
                        },
                        "displayName": "Gierko Jakub",
                        "active": true,
                        "timeZone": "Poland"
                    },
                    "comment": "Development",
                    "created": "2018-05-30T17:52:22.000+0200",
                    "updated": "2018-05-30T17:52:22.000+0200",
                    "started": "2018-05-07T00:00:00.000+0200",
                    "timeSpent": "1d",
                    "timeSpentSeconds": 28800,
                    "id": "93778"
                },
                {
                    "self": "https://support.ibpm.pro:8443/rest/api/2/issue/37300/worklog/93779",
                    "author": {
                        "self": "https://support.ibpm.pro:8443/rest/api/2/user?username=jgierko",
                        "name": "jgierko",
                        "key": "jgierko",
                        "emailAddress": "jakub.gierko@ibpm.pro",
                        "avatarUrls": {
                            "48x48": "https://support.ibpm.pro:8443/secure/useravatar?avatarId=10122",
                            "24x24": "https://support.ibpm.pro:8443/secure/useravatar?size=small&avatarId=10122",
                            "16x16": "https://support.ibpm.pro:8443/secure/useravatar?size=xsmall&avatarId=10122",
                            "32x32": "https://support.ibpm.pro:8443/secure/useravatar?size=medium&avatarId=10122"
                        },
                        "displayName": "Gierko Jakub",
                        "active": true,
                        "timeZone": "Poland"
                    },
                    "updateAuthor": {
                        "self": "https://support.ibpm.pro:8443/rest/api/2/user?username=jgierko",
                        "name": "jgierko",
                        "key": "jgierko",
                        "emailAddress": "jakub.gierko@ibpm.pro",
                        "avatarUrls": {
                            "48x48": "https://support.ibpm.pro:8443/secure/useravatar?avatarId=10122",
                            "24x24": "https://support.ibpm.pro:8443/secure/useravatar?size=small&avatarId=10122",
                            "16x16": "https://support.ibpm.pro:8443/secure/useravatar?size=xsmall&avatarId=10122",
                            "32x32": "https://support.ibpm.pro:8443/secure/useravatar?size=medium&avatarId=10122"
                        },
                        "displayName": "Gierko Jakub",
                        "active": true,
                        "timeZone": "Poland"
                    },
                    "comment": "Development",
                    "created": "2018-05-30T17:52:37.000+0200",
                    "updated": "2018-05-30T17:52:37.000+0200",
                    "started": "2018-05-09T00:00:00.000+0200",
                    "timeSpent": "1d",
                    "timeSpentSeconds": 28800,
                    "id": "93779"
                },
                {
                    "self": "https://support.ibpm.pro:8443/rest/api/2/issue/37300/worklog/93780",
                    "author": {
                        "self": "https://support.ibpm.pro:8443/rest/api/2/user?username=jgierko",
                        "name": "jgierko",
                        "key": "jgierko",
                        "emailAddress": "jakub.gierko@ibpm.pro",
                        "avatarUrls": {
                            "48x48": "https://support.ibpm.pro:8443/secure/useravatar?avatarId=10122",
                            "24x24": "https://support.ibpm.pro:8443/secure/useravatar?size=small&avatarId=10122",
                            "16x16": "https://support.ibpm.pro:8443/secure/useravatar?size=xsmall&avatarId=10122",
                            "32x32": "https://support.ibpm.pro:8443/secure/useravatar?size=medium&avatarId=10122"
                        },
                        "displayName": "Gierko Jakub",
                        "active": true,
                        "timeZone": "Poland"
                    },
                    "updateAuthor": {
                        "self": "https://support.ibpm.pro:8443/rest/api/2/user?username=jgierko",
                        "name": "jgierko",
                        "key": "jgierko",
                        "emailAddress": "jakub.gierko@ibpm.pro",
                        "avatarUrls": {
                            "48x48": "https://support.ibpm.pro:8443/secure/useravatar?avatarId=10122",
                            "24x24": "https://support.ibpm.pro:8443/secure/useravatar?size=small&avatarId=10122",
                            "16x16": "https://support.ibpm.pro:8443/secure/useravatar?size=xsmall&avatarId=10122",
                            "32x32": "https://support.ibpm.pro:8443/secure/useravatar?size=medium&avatarId=10122"
                        },
                        "displayName": "Gierko Jakub",
                        "active": true,
                        "timeZone": "Poland"
                    },
                    "comment": "Development",
                    "created": "2018-05-30T17:52:50.000+0200",
                    "updated": "2018-05-30T17:52:50.000+0200",
                    "started": "2018-05-08T00:00:00.000+0200",
                    "timeSpent": "1d",
                    "timeSpentSeconds": 28800,
                    "id": "93780"
                },
                {
                    "self": "https://support.ibpm.pro:8443/rest/api/2/issue/37300/worklog/93781",
                    "author": {
                        "self": "https://support.ibpm.pro:8443/rest/api/2/user?username=jgierko",
                        "name": "jgierko",
                        "key": "jgierko",
                        "emailAddress": "jakub.gierko@ibpm.pro",
                        "avatarUrls": {
                            "48x48": "https://support.ibpm.pro:8443/secure/useravatar?avatarId=10122",
                            "24x24": "https://support.ibpm.pro:8443/secure/useravatar?size=small&avatarId=10122",
                            "16x16": "https://support.ibpm.pro:8443/secure/useravatar?size=xsmall&avatarId=10122",
                            "32x32": "https://support.ibpm.pro:8443/secure/useravatar?size=medium&avatarId=10122"
                        },
                        "displayName": "Gierko Jakub",
                        "active": true,
                        "timeZone": "Poland"
                    },
                    "updateAuthor": {
                        "self": "https://support.ibpm.pro:8443/rest/api/2/user?username=jgierko",
                        "name": "jgierko",
                        "key": "jgierko",
                        "emailAddress": "jakub.gierko@ibpm.pro",
                        "avatarUrls": {
                            "48x48": "https://support.ibpm.pro:8443/secure/useravatar?avatarId=10122",
                            "24x24": "https://support.ibpm.pro:8443/secure/useravatar?size=small&avatarId=10122",
                            "16x16": "https://support.ibpm.pro:8443/secure/useravatar?size=xsmall&avatarId=10122",
                            "32x32": "https://support.ibpm.pro:8443/secure/useravatar?size=medium&avatarId=10122"
                        },
                        "displayName": "Gierko Jakub",
                        "active": true,
                        "timeZone": "Poland"
                    },
                    "comment": "Development",
                    "created": "2018-05-30T17:53:01.000+0200",
                    "updated": "2018-05-30T17:53:01.000+0200",
                    "started": "2018-05-10T00:00:00.000+0200",
                    "timeSpent": "1d",
                    "timeSpentSeconds": 28800,
                    "id": "93781"
                },
                {
                    "self": "https://support.ibpm.pro:8443/rest/api/2/issue/37300/worklog/93782",
                    "author": {
                        "self": "https://support.ibpm.pro:8443/rest/api/2/user?username=jgierko",
                        "name": "jgierko",
                        "key": "jgierko",
                        "emailAddress": "jakub.gierko@ibpm.pro",
                        "avatarUrls": {
                            "48x48": "https://support.ibpm.pro:8443/secure/useravatar?avatarId=10122",
                            "24x24": "https://support.ibpm.pro:8443/secure/useravatar?size=small&avatarId=10122",
                            "16x16": "https://support.ibpm.pro:8443/secure/useravatar?size=xsmall&avatarId=10122",
                            "32x32": "https://support.ibpm.pro:8443/secure/useravatar?size=medium&avatarId=10122"
                        },
                        "displayName": "Gierko Jakub",
                        "active": true,
                        "timeZone": "Poland"
                    },
                    "updateAuthor": {
                        "self": "https://support.ibpm.pro:8443/rest/api/2/user?username=jgierko",
                        "name": "jgierko",
                        "key": "jgierko",
                        "emailAddress": "jakub.gierko@ibpm.pro",
                        "avatarUrls": {
                            "48x48": "https://support.ibpm.pro:8443/secure/useravatar?avatarId=10122",
                            "24x24": "https://support.ibpm.pro:8443/secure/useravatar?size=small&avatarId=10122",
                            "16x16": "https://support.ibpm.pro:8443/secure/useravatar?size=xsmall&avatarId=10122",
                            "32x32": "https://support.ibpm.pro:8443/secure/useravatar?size=medium&avatarId=10122"
                        },
                        "displayName": "Gierko Jakub",
                        "active": true,
                        "timeZone": "Poland"
                    },
                    "comment": "Development",
                    "created": "2018-05-30T17:53:11.000+0200",
                    "updated": "2018-05-30T17:53:11.000+0200",
                    "started": "2018-05-11T00:00:00.000+0200",
                    "timeSpent": "1d",
                    "timeSpentSeconds": 28800,
                    "id": "93782"
                },
                {
                    "self": "https://support.ibpm.pro:8443/rest/api/2/issue/37300/worklog/93784",
                    "author": {
                        "self": "https://support.ibpm.pro:8443/rest/api/2/user?username=jgierko",
                        "name": "jgierko",
                        "key": "jgierko",
                        "emailAddress": "jakub.gierko@ibpm.pro",
                        "avatarUrls": {
                            "48x48": "https://support.ibpm.pro:8443/secure/useravatar?avatarId=10122",
                            "24x24": "https://support.ibpm.pro:8443/secure/useravatar?size=small&avatarId=10122",
                            "16x16": "https://support.ibpm.pro:8443/secure/useravatar?size=xsmall&avatarId=10122",
                            "32x32": "https://support.ibpm.pro:8443/secure/useravatar?size=medium&avatarId=10122"
                        },
                        "displayName": "Gierko Jakub",
                        "active": true,
                        "timeZone": "Poland"
                    },
                    "updateAuthor": {
                        "self": "https://support.ibpm.pro:8443/rest/api/2/user?username=jgierko",
                        "name": "jgierko",
                        "key": "jgierko",
                        "emailAddress": "jakub.gierko@ibpm.pro",
                        "avatarUrls": {
                            "48x48": "https://support.ibpm.pro:8443/secure/useravatar?avatarId=10122",
                            "24x24": "https://support.ibpm.pro:8443/secure/useravatar?size=small&avatarId=10122",
                            "16x16": "https://support.ibpm.pro:8443/secure/useravatar?size=xsmall&avatarId=10122",
                            "32x32": "https://support.ibpm.pro:8443/secure/useravatar?size=medium&avatarId=10122"
                        },
                        "displayName": "Gierko Jakub",
                        "active": true,
                        "timeZone": "Poland"
                    },
                    "comment": "Development",
                    "created": "2018-05-30T17:53:23.000+0200",
                    "updated": "2018-05-30T17:53:23.000+0200",
                    "started": "2018-05-14T00:00:00.000+0200",
                    "timeSpent": "1d",
                    "timeSpentSeconds": 28800,
                    "id": "93784"
                },
                {
                    "self": "https://support.ibpm.pro:8443/rest/api/2/issue/37300/worklog/93785",
                    "author": {
                        "self": "https://support.ibpm.pro:8443/rest/api/2/user?username=jgierko",
                        "name": "jgierko",
                        "key": "jgierko",
                        "emailAddress": "jakub.gierko@ibpm.pro",
                        "avatarUrls": {
                            "48x48": "https://support.ibpm.pro:8443/secure/useravatar?avatarId=10122",
                            "24x24": "https://support.ibpm.pro:8443/secure/useravatar?size=small&avatarId=10122",
                            "16x16": "https://support.ibpm.pro:8443/secure/useravatar?size=xsmall&avatarId=10122",
                            "32x32": "https://support.ibpm.pro:8443/secure/useravatar?size=medium&avatarId=10122"
                        },
                        "displayName": "Gierko Jakub",
                        "active": true,
                        "timeZone": "Poland"
                    },
                    "updateAuthor": {
                        "self": "https://support.ibpm.pro:8443/rest/api/2/user?username=jgierko",
                        "name": "jgierko",
                        "key": "jgierko",
                        "emailAddress": "jakub.gierko@ibpm.pro",
                        "avatarUrls": {
                            "48x48": "https://support.ibpm.pro:8443/secure/useravatar?avatarId=10122",
                            "24x24": "https://support.ibpm.pro:8443/secure/useravatar?size=small&avatarId=10122",
                            "16x16": "https://support.ibpm.pro:8443/secure/useravatar?size=xsmall&avatarId=10122",
                            "32x32": "https://support.ibpm.pro:8443/secure/useravatar?size=medium&avatarId=10122"
                        },
                        "displayName": "Gierko Jakub",
                        "active": true,
                        "timeZone": "Poland"
                    },
                    "comment": "Development",
                    "created": "2018-05-30T17:53:37.000+0200",
                    "updated": "2018-05-30T17:53:37.000+0200",
                    "started": "2018-05-15T00:00:00.000+0200",
                    "timeSpent": "1d",
                    "timeSpentSeconds": 28800,
                    "id": "93785"
                },
                {
                    "self": "https://support.ibpm.pro:8443/rest/api/2/issue/37300/worklog/93786",
                    "author": {
                        "self": "https://support.ibpm.pro:8443/rest/api/2/user?username=jgierko",
                        "name": "jgierko",
                        "key": "jgierko",
                        "emailAddress": "jakub.gierko@ibpm.pro",
                        "avatarUrls": {
                            "48x48": "https://support.ibpm.pro:8443/secure/useravatar?avatarId=10122",
                            "24x24": "https://support.ibpm.pro:8443/secure/useravatar?size=small&avatarId=10122",
                            "16x16": "https://support.ibpm.pro:8443/secure/useravatar?size=xsmall&avatarId=10122",
                            "32x32": "https://support.ibpm.pro:8443/secure/useravatar?size=medium&avatarId=10122"
                        },
                        "displayName": "Gierko Jakub",
                        "active": true,
                        "timeZone": "Poland"
                    },
                    "updateAuthor": {
                        "self": "https://support.ibpm.pro:8443/rest/api/2/user?username=jgierko",
                        "name": "jgierko",
                        "key": "jgierko",
                        "emailAddress": "jakub.gierko@ibpm.pro",
                        "avatarUrls": {
                            "48x48": "https://support.ibpm.pro:8443/secure/useravatar?avatarId=10122",
                            "24x24": "https://support.ibpm.pro:8443/secure/useravatar?size=small&avatarId=10122",
                            "16x16": "https://support.ibpm.pro:8443/secure/useravatar?size=xsmall&avatarId=10122",
                            "32x32": "https://support.ibpm.pro:8443/secure/useravatar?size=medium&avatarId=10122"
                        },
                        "displayName": "Gierko Jakub",
                        "active": true,
                        "timeZone": "Poland"
                    },
                    "comment": "Development",
                    "created": "2018-05-30T17:53:51.000+0200",
                    "updated": "2018-05-30T17:53:51.000+0200",
                    "started": "2018-05-16T00:00:00.000+0200",
                    "timeSpent": "1d",
                    "timeSpentSeconds": 28800,
                    "id": "93786"
                },
                {
                    "self": "https://support.ibpm.pro:8443/rest/api/2/issue/37300/worklog/93787",
                    "author": {
                        "self": "https://support.ibpm.pro:8443/rest/api/2/user?username=jgierko",
                        "name": "jgierko",
                        "key": "jgierko",
                        "emailAddress": "jakub.gierko@ibpm.pro",
                        "avatarUrls": {
                            "48x48": "https://support.ibpm.pro:8443/secure/useravatar?avatarId=10122",
                            "24x24": "https://support.ibpm.pro:8443/secure/useravatar?size=small&avatarId=10122",
                            "16x16": "https://support.ibpm.pro:8443/secure/useravatar?size=xsmall&avatarId=10122",
                            "32x32": "https://support.ibpm.pro:8443/secure/useravatar?size=medium&avatarId=10122"
                        },
                        "displayName": "Gierko Jakub",
                        "active": true,
                        "timeZone": "Poland"
                    },
                    "updateAuthor": {
                        "self": "https://support.ibpm.pro:8443/rest/api/2/user?username=jgierko",
                        "name": "jgierko",
                        "key": "jgierko",
                        "emailAddress": "jakub.gierko@ibpm.pro",
                        "avatarUrls": {
                            "48x48": "https://support.ibpm.pro:8443/secure/useravatar?avatarId=10122",
                            "24x24": "https://support.ibpm.pro:8443/secure/useravatar?size=small&avatarId=10122",
                            "16x16": "https://support.ibpm.pro:8443/secure/useravatar?size=xsmall&avatarId=10122",
                            "32x32": "https://support.ibpm.pro:8443/secure/useravatar?size=medium&avatarId=10122"
                        },
                        "displayName": "Gierko Jakub",
                        "active": true,
                        "timeZone": "Poland"
                    },
                    "comment": "Development",
                    "created": "2018-05-30T17:54:03.000+0200",
                    "updated": "2018-05-30T17:54:03.000+0200",
                    "started": "2018-05-17T00:00:00.000+0200",
                    "timeSpent": "1d",
                    "timeSpentSeconds": 28800,
                    "id": "93787"
                },
                {
                    "self": "https://support.ibpm.pro:8443/rest/api/2/issue/37300/worklog/93788",
                    "author": {
                        "self": "https://support.ibpm.pro:8443/rest/api/2/user?username=jgierko",
                        "name": "jgierko",
                        "key": "jgierko",
                        "emailAddress": "jakub.gierko@ibpm.pro",
                        "avatarUrls": {
                            "48x48": "https://support.ibpm.pro:8443/secure/useravatar?avatarId=10122",
                            "24x24": "https://support.ibpm.pro:8443/secure/useravatar?size=small&avatarId=10122",
                            "16x16": "https://support.ibpm.pro:8443/secure/useravatar?size=xsmall&avatarId=10122",
                            "32x32": "https://support.ibpm.pro:8443/secure/useravatar?size=medium&avatarId=10122"
                        },
                        "displayName": "Gierko Jakub",
                        "active": true,
                        "timeZone": "Poland"
                    },
                    "updateAuthor": {
                        "self": "https://support.ibpm.pro:8443/rest/api/2/user?username=jgierko",
                        "name": "jgierko",
                        "key": "jgierko",
                        "emailAddress": "jakub.gierko@ibpm.pro",
                        "avatarUrls": {
                            "48x48": "https://support.ibpm.pro:8443/secure/useravatar?avatarId=10122",
                            "24x24": "https://support.ibpm.pro:8443/secure/useravatar?size=small&avatarId=10122",
                            "16x16": "https://support.ibpm.pro:8443/secure/useravatar?size=xsmall&avatarId=10122",
                            "32x32": "https://support.ibpm.pro:8443/secure/useravatar?size=medium&avatarId=10122"
                        },
                        "displayName": "Gierko Jakub",
                        "active": true,
                        "timeZone": "Poland"
                    },
                    "comment": "Development",
                    "created": "2018-05-30T17:57:37.000+0200",
                    "updated": "2018-05-30T17:57:37.000+0200",
                    "started": "2018-05-18T00:00:00.000+0200",
                    "timeSpent": "1d",
                    "timeSpentSeconds": 28800,
                    "id": "93788"
                },
                {
                    "self": "https://support.ibpm.pro:8443/rest/api/2/issue/37300/worklog/93789",
                    "author": {
                        "self": "https://support.ibpm.pro:8443/rest/api/2/user?username=jgierko",
                        "name": "jgierko",
                        "key": "jgierko",
                        "emailAddress": "jakub.gierko@ibpm.pro",
                        "avatarUrls": {
                            "48x48": "https://support.ibpm.pro:8443/secure/useravatar?avatarId=10122",
                            "24x24": "https://support.ibpm.pro:8443/secure/useravatar?size=small&avatarId=10122",
                            "16x16": "https://support.ibpm.pro:8443/secure/useravatar?size=xsmall&avatarId=10122",
                            "32x32": "https://support.ibpm.pro:8443/secure/useravatar?size=medium&avatarId=10122"
                        },
                        "displayName": "Gierko Jakub",
                        "active": true,
                        "timeZone": "Poland"
                    },
                    "updateAuthor": {
                        "self": "https://support.ibpm.pro:8443/rest/api/2/user?username=jgierko",
                        "name": "jgierko",
                        "key": "jgierko",
                        "emailAddress": "jakub.gierko@ibpm.pro",
                        "avatarUrls": {
                            "48x48": "https://support.ibpm.pro:8443/secure/useravatar?avatarId=10122",
                            "24x24": "https://support.ibpm.pro:8443/secure/useravatar?size=small&avatarId=10122",
                            "16x16": "https://support.ibpm.pro:8443/secure/useravatar?size=xsmall&avatarId=10122",
                            "32x32": "https://support.ibpm.pro:8443/secure/useravatar?size=medium&avatarId=10122"
                        },
                        "displayName": "Gierko Jakub",
                        "active": true,
                        "timeZone": "Poland"
                    },
                    "comment": "Development",
                    "created": "2018-05-30T17:57:53.000+0200",
                    "updated": "2018-05-30T17:57:53.000+0200",
                    "started": "2018-05-21T00:00:00.000+0200",
                    "timeSpent": "1d",
                    "timeSpentSeconds": 28800,
                    "id": "93789"
                },
                {
                    "self": "https://support.ibpm.pro:8443/rest/api/2/issue/37300/worklog/93790",
                    "author": {
                        "self": "https://support.ibpm.pro:8443/rest/api/2/user?username=jgierko",
                        "name": "jgierko",
                        "key": "jgierko",
                        "emailAddress": "jakub.gierko@ibpm.pro",
                        "avatarUrls": {
                            "48x48": "https://support.ibpm.pro:8443/secure/useravatar?avatarId=10122",
                            "24x24": "https://support.ibpm.pro:8443/secure/useravatar?size=small&avatarId=10122",
                            "16x16": "https://support.ibpm.pro:8443/secure/useravatar?size=xsmall&avatarId=10122",
                            "32x32": "https://support.ibpm.pro:8443/secure/useravatar?size=medium&avatarId=10122"
                        },
                        "displayName": "Gierko Jakub",
                        "active": true,
                        "timeZone": "Poland"
                    },
                    "updateAuthor": {
                        "self": "https://support.ibpm.pro:8443/rest/api/2/user?username=jgierko",
                        "name": "jgierko",
                        "key": "jgierko",
                        "emailAddress": "jakub.gierko@ibpm.pro",
                        "avatarUrls": {
                            "48x48": "https://support.ibpm.pro:8443/secure/useravatar?avatarId=10122",
                            "24x24": "https://support.ibpm.pro:8443/secure/useravatar?size=small&avatarId=10122",
                            "16x16": "https://support.ibpm.pro:8443/secure/useravatar?size=xsmall&avatarId=10122",
                            "32x32": "https://support.ibpm.pro:8443/secure/useravatar?size=medium&avatarId=10122"
                        },
                        "displayName": "Gierko Jakub",
                        "active": true,
                        "timeZone": "Poland"
                    },
                    "comment": "Development",
                    "created": "2018-05-30T17:58:06.000+0200",
                    "updated": "2018-05-30T17:58:06.000+0200",
                    "started": "2018-05-22T00:00:00.000+0200",
                    "timeSpent": "1d",
                    "timeSpentSeconds": 28800,
                    "id": "93790"
                },
                {
                    "self": "https://support.ibpm.pro:8443/rest/api/2/issue/37300/worklog/93791",
                    "author": {
                        "self": "https://support.ibpm.pro:8443/rest/api/2/user?username=jgierko",
                        "name": "jgierko",
                        "key": "jgierko",
                        "emailAddress": "jakub.gierko@ibpm.pro",
                        "avatarUrls": {
                            "48x48": "https://support.ibpm.pro:8443/secure/useravatar?avatarId=10122",
                            "24x24": "https://support.ibpm.pro:8443/secure/useravatar?size=small&avatarId=10122",
                            "16x16": "https://support.ibpm.pro:8443/secure/useravatar?size=xsmall&avatarId=10122",
                            "32x32": "https://support.ibpm.pro:8443/secure/useravatar?size=medium&avatarId=10122"
                        },
                        "displayName": "Gierko Jakub",
                        "active": true,
                        "timeZone": "Poland"
                    },
                    "updateAuthor": {
                        "self": "https://support.ibpm.pro:8443/rest/api/2/user?username=jgierko",
                        "name": "jgierko",
                        "key": "jgierko",
                        "emailAddress": "jakub.gierko@ibpm.pro",
                        "avatarUrls": {
                            "48x48": "https://support.ibpm.pro:8443/secure/useravatar?avatarId=10122",
                            "24x24": "https://support.ibpm.pro:8443/secure/useravatar?size=small&avatarId=10122",
                            "16x16": "https://support.ibpm.pro:8443/secure/useravatar?size=xsmall&avatarId=10122",
                            "32x32": "https://support.ibpm.pro:8443/secure/useravatar?size=medium&avatarId=10122"
                        },
                        "displayName": "Gierko Jakub",
                        "active": true,
                        "timeZone": "Poland"
                    },
                    "comment": "Development",
                    "created": "2018-05-30T17:58:16.000+0200",
                    "updated": "2018-05-30T17:58:16.000+0200",
                    "started": "2018-05-23T00:00:00.000+0200",
                    "timeSpent": "1d",
                    "timeSpentSeconds": 28800,
                    "id": "93791"
                },
                {
                    "self": "https://support.ibpm.pro:8443/rest/api/2/issue/37300/worklog/93792",
                    "author": {
                        "self": "https://support.ibpm.pro:8443/rest/api/2/user?username=jgierko",
                        "name": "jgierko",
                        "key": "jgierko",
                        "emailAddress": "jakub.gierko@ibpm.pro",
                        "avatarUrls": {
                            "48x48": "https://support.ibpm.pro:8443/secure/useravatar?avatarId=10122",
                            "24x24": "https://support.ibpm.pro:8443/secure/useravatar?size=small&avatarId=10122",
                            "16x16": "https://support.ibpm.pro:8443/secure/useravatar?size=xsmall&avatarId=10122",
                            "32x32": "https://support.ibpm.pro:8443/secure/useravatar?size=medium&avatarId=10122"
                        },
                        "displayName": "Gierko Jakub",
                        "active": true,
                        "timeZone": "Poland"
                    },
                    "updateAuthor": {
                        "self": "https://support.ibpm.pro:8443/rest/api/2/user?username=jgierko",
                        "name": "jgierko",
                        "key": "jgierko",
                        "emailAddress": "jakub.gierko@ibpm.pro",
                        "avatarUrls": {
                            "48x48": "https://support.ibpm.pro:8443/secure/useravatar?avatarId=10122",
                            "24x24": "https://support.ibpm.pro:8443/secure/useravatar?size=small&avatarId=10122",
                            "16x16": "https://support.ibpm.pro:8443/secure/useravatar?size=xsmall&avatarId=10122",
                            "32x32": "https://support.ibpm.pro:8443/secure/useravatar?size=medium&avatarId=10122"
                        },
                        "displayName": "Gierko Jakub",
                        "active": true,
                        "timeZone": "Poland"
                    },
                    "comment": "Development",
                    "created": "2018-05-30T17:58:31.000+0200",
                    "updated": "2018-05-30T17:58:31.000+0200",
                    "started": "2018-05-24T00:00:00.000+0200",
                    "timeSpent": "1d",
                    "timeSpentSeconds": 28800,
                    "id": "93792"
                },
                {
                    "self": "https://support.ibpm.pro:8443/rest/api/2/issue/37300/worklog/93793",
                    "author": {
                        "self": "https://support.ibpm.pro:8443/rest/api/2/user?username=jgierko",
                        "name": "jgierko",
                        "key": "jgierko",
                        "emailAddress": "jakub.gierko@ibpm.pro",
                        "avatarUrls": {
                            "48x48": "https://support.ibpm.pro:8443/secure/useravatar?avatarId=10122",
                            "24x24": "https://support.ibpm.pro:8443/secure/useravatar?size=small&avatarId=10122",
                            "16x16": "https://support.ibpm.pro:8443/secure/useravatar?size=xsmall&avatarId=10122",
                            "32x32": "https://support.ibpm.pro:8443/secure/useravatar?size=medium&avatarId=10122"
                        },
                        "displayName": "Gierko Jakub",
                        "active": true,
                        "timeZone": "Poland"
                    },
                    "updateAuthor": {
                        "self": "https://support.ibpm.pro:8443/rest/api/2/user?username=jgierko",
                        "name": "jgierko",
                        "key": "jgierko",
                        "emailAddress": "jakub.gierko@ibpm.pro",
                        "avatarUrls": {
                            "48x48": "https://support.ibpm.pro:8443/secure/useravatar?avatarId=10122",
                            "24x24": "https://support.ibpm.pro:8443/secure/useravatar?size=small&avatarId=10122",
                            "16x16": "https://support.ibpm.pro:8443/secure/useravatar?size=xsmall&avatarId=10122",
                            "32x32": "https://support.ibpm.pro:8443/secure/useravatar?size=medium&avatarId=10122"
                        },
                        "displayName": "Gierko Jakub",
                        "active": true,
                        "timeZone": "Poland"
                    },
                    "comment": "Development",
                    "created": "2018-05-30T17:58:46.000+0200",
                    "updated": "2018-05-30T17:58:46.000+0200",
                    "started": "2018-05-25T00:00:00.000+0200",
                    "timeSpent": "1d",
                    "timeSpentSeconds": 28800,
                    "id": "93793"
                },
                {
                    "self": "https://support.ibpm.pro:8443/rest/api/2/issue/37300/worklog/93794",
                    "author": {
                        "self": "https://support.ibpm.pro:8443/rest/api/2/user?username=jgierko",
                        "name": "jgierko",
                        "key": "jgierko",
                        "emailAddress": "jakub.gierko@ibpm.pro",
                        "avatarUrls": {
                            "48x48": "https://support.ibpm.pro:8443/secure/useravatar?avatarId=10122",
                            "24x24": "https://support.ibpm.pro:8443/secure/useravatar?size=small&avatarId=10122",
                            "16x16": "https://support.ibpm.pro:8443/secure/useravatar?size=xsmall&avatarId=10122",
                            "32x32": "https://support.ibpm.pro:8443/secure/useravatar?size=medium&avatarId=10122"
                        },
                        "displayName": "Gierko Jakub",
                        "active": true,
                        "timeZone": "Poland"
                    },
                    "updateAuthor": {
                        "self": "https://support.ibpm.pro:8443/rest/api/2/user?username=jgierko",
                        "name": "jgierko",
                        "key": "jgierko",
                        "emailAddress": "jakub.gierko@ibpm.pro",
                        "avatarUrls": {
                            "48x48": "https://support.ibpm.pro:8443/secure/useravatar?avatarId=10122",
                            "24x24": "https://support.ibpm.pro:8443/secure/useravatar?size=small&avatarId=10122",
                            "16x16": "https://support.ibpm.pro:8443/secure/useravatar?size=xsmall&avatarId=10122",
                            "32x32": "https://support.ibpm.pro:8443/secure/useravatar?size=medium&avatarId=10122"
                        },
                        "displayName": "Gierko Jakub",
                        "active": true,
                        "timeZone": "Poland"
                    },
                    "comment": "Development",
                    "created": "2018-05-30T17:59:13.000+0200",
                    "updated": "2018-05-30T17:59:13.000+0200",
                    "started": "2018-05-28T00:00:00.000+0200",
                    "timeSpent": "1d",
                    "timeSpentSeconds": 28800,
                    "id": "93794"
                },
                {
                    "self": "https://support.ibpm.pro:8443/rest/api/2/issue/37300/worklog/93795",
                    "author": {
                        "self": "https://support.ibpm.pro:8443/rest/api/2/user?username=jgierko",
                        "name": "jgierko",
                        "key": "jgierko",
                        "emailAddress": "jakub.gierko@ibpm.pro",
                        "avatarUrls": {
                            "48x48": "https://support.ibpm.pro:8443/secure/useravatar?avatarId=10122",
                            "24x24": "https://support.ibpm.pro:8443/secure/useravatar?size=small&avatarId=10122",
                            "16x16": "https://support.ibpm.pro:8443/secure/useravatar?size=xsmall&avatarId=10122",
                            "32x32": "https://support.ibpm.pro:8443/secure/useravatar?size=medium&avatarId=10122"
                        },
                        "displayName": "Gierko Jakub",
                        "active": true,
                        "timeZone": "Poland"
                    },
                    "updateAuthor": {
                        "self": "https://support.ibpm.pro:8443/rest/api/2/user?username=jgierko",
                        "name": "jgierko",
                        "key": "jgierko",
                        "emailAddress": "jakub.gierko@ibpm.pro",
                        "avatarUrls": {
                            "48x48": "https://support.ibpm.pro:8443/secure/useravatar?avatarId=10122",
                            "24x24": "https://support.ibpm.pro:8443/secure/useravatar?size=small&avatarId=10122",
                            "16x16": "https://support.ibpm.pro:8443/secure/useravatar?size=xsmall&avatarId=10122",
                            "32x32": "https://support.ibpm.pro:8443/secure/useravatar?size=medium&avatarId=10122"
                        },
                        "displayName": "Gierko Jakub",
                        "active": true,
                        "timeZone": "Poland"
                    },
                    "comment": "Development",
                    "created": "2018-05-30T17:59:27.000+0200",
                    "updated": "2018-05-30T17:59:27.000+0200",
                    "started": "2018-05-29T00:00:00.000+0200",
                    "timeSpent": "1d",
                    "timeSpentSeconds": 28800,
                    "id": "93795"
                },
                {
                    "self": "https://support.ibpm.pro:8443/rest/api/2/issue/37300/worklog/93796",
                    "author": {
                        "self": "https://support.ibpm.pro:8443/rest/api/2/user?username=jgierko",
                        "name": "jgierko",
                        "key": "jgierko",
                        "emailAddress": "jakub.gierko@ibpm.pro",
                        "avatarUrls": {
                            "48x48": "https://support.ibpm.pro:8443/secure/useravatar?avatarId=10122",
                            "24x24": "https://support.ibpm.pro:8443/secure/useravatar?size=small&avatarId=10122",
                            "16x16": "https://support.ibpm.pro:8443/secure/useravatar?size=xsmall&avatarId=10122",
                            "32x32": "https://support.ibpm.pro:8443/secure/useravatar?size=medium&avatarId=10122"
                        },
                        "displayName": "Gierko Jakub",
                        "active": true,
                        "timeZone": "Poland"
                    },
                    "updateAuthor": {
                        "self": "https://support.ibpm.pro:8443/rest/api/2/user?username=jgierko",
                        "name": "jgierko",
                        "key": "jgierko",
                        "emailAddress": "jakub.gierko@ibpm.pro",
                        "avatarUrls": {
                            "48x48": "https://support.ibpm.pro:8443/secure/useravatar?avatarId=10122",
                            "24x24": "https://support.ibpm.pro:8443/secure/useravatar?size=small&avatarId=10122",
                            "16x16": "https://support.ibpm.pro:8443/secure/useravatar?size=xsmall&avatarId=10122",
                            "32x32": "https://support.ibpm.pro:8443/secure/useravatar?size=medium&avatarId=10122"
                        },
                        "displayName": "Gierko Jakub",
                        "active": true,
                        "timeZone": "Poland"
                    },
                    "comment": "Development",
                    "created": "2018-05-30T17:59:38.000+0200",
                    "updated": "2018-05-30T17:59:38.000+0200",
                    "started": "2018-05-30T00:00:00.000+0200",
                    "timeSpent": "1d",
                    "timeSpentSeconds": 28800,
                    "id": "93796"
                }
            ]
        },
        "customfield_11808": null
    }
}